s349f_2 101 detected faults
Netno stuck-at-value
45 1
13 0
2 1
50 0
70 1
65 1
11 0
74 1
183 0
12 1
52 0
135 1
116 1
16 1
73 1
181 0
56 1
124 1
51 1
48 0
9 0
6 1
10 1
131 1
176 0
39 0
32 1
134 1
138 1
54 1
42 0
187 1
130 1
31 0
110 1
137 0
118 1
4 1
179 0
64 1
60 1
8 1
34 1
57 0
174 1
189 1
37 0
38 1
33 0
115 1
41 0
178 1
29 0
71 1
133 0
30 1
113 0
3 0
114 1
1 0
123 1
55 0
40 1
35 0
173 0
36 1
120 0
5 0
188 1
122 1
27 0
127 0
28 1
109 0
129 1
111 1
68 0
15 0
126 0
69 1
62 0
128 1
44 0
72 1
43 1
46 0
26 1
177 1
47 1
66 0
14 1
25 0
49 1
67 1
7 0
53 1
61 1
171 0
121 0
58 0
180 0
